<svg xmlns="http://www.w3.org/2000/svg" width="100" height="100" viewBox="-35 0 210 140">
  <defs>
    <style>
      .alk-1{fill:#fff;stroke:#fff;}
      .alk-2{fill:#69b02a;}
    </style>
  </defs>
  <title>Asset 10</title>
  <g id="Layer_2" data-name="Layer 2">
    <g id="Layer_1-2" data-name="Layer 1">
      <circle class="alk-1" cx="70" cy="70" r="100"/>
      <path class="alk-2" d="M133.43,34.44l7-7a4.21,4.21,0,0,0-2.63-7.18l-13-1.1-1.1-13a4.21,4.21,0,0,0-7.18-2.63l-7,7A72,72,0,0,0,21.09,122.91,72,72,0,0,0,133.43,34.44Zm-16.71-11a4.22,4.22,0,0,0,3.85,3.85l7.45.63L117.93,38l-11-.93-.93-11L116.09,16ZM86.34,72a14.35,14.35,0,1,1-7.63-12.67L69,69a4.21,4.21,0,1,0,6,6l9.69-9.69A14.22,14.22,0,0,1,86.34,72Zm-1.5-18.81a22.79,22.79,0,1,0,6,6l12-12a39.71,39.71,0,1,1-6-6ZM117,117a63.57,63.57,0,0,1-89.9-89.9,63.61,63.61,0,0,1,76.36-10.32l-4.76,4.76a4.23,4.23,0,0,0-1.24,2.87c0,.15,0,.31,0,.46L98,31.55A48.1,48.1,0,1,0,112.45,46l6.73.57.35,0h.23l.27,0,.17,0,.27-.05.16,0,.26-.08.16-.06.24-.11.16-.07.24-.13.14-.09.24-.17.11-.08a3.18,3.18,0,0,0,.33-.3l4.76-4.76A63.61,63.61,0,0,1,117,117Z"/>
    </g>
  </g>
</svg>